{
    "api": "0.13",
    "space": "Hacklabor",
    "logo": "http://hacklabor.de/assets/img/logo/Logo_Large_black.svg.png",
    "url": "http://hacklabor.de",
    "location": {
        "address": "Hagenower Str. 73, 19061 Schwerin, Germany",
        "lon": 11.4183,
        "lat": 53.6011
    },
    "contact": {
        "email": "inbox@hacklabor.de",
        "twitter": "@hacklabor",
        "facebook": "hacklabor"
    },
    "state": {
        "open": {% if jekyll.environment == "openlab" %}true{% else %}false{% endif %},
        "lastchange": {{ site.time | date: "%s" }},
        "message": "{% if jekyll.environment == "openlab" %}yes, we're open{% else %}sorry, we're closed{% endif %}"
    },
    "projects": [
        "http://gitlab.com/hacklabor"
    ],
    "issue_report_channels": [
        "email"
    ]
}